1.0000000000 0.0000000000 0.0000000000 -728.0662860870
0.0000000000 1.0000000000 0.0000000000 -323.3660787344
0.0000000000 0.0000000000 0.0000000000 801.52466367713
0.0000000000 0.0000000000 0.2000000000 -0.0000000000
